dwell_time,peak,charge
0.00149000000000001,0.068067140440526,74.1485089932458
0.000319999999999876,0.0785509320716091,21.3736493878923
0.000499999999999723,0.0489584261524953,18.6442188882224
0.00170000000000048,0.0578847388271981,77.7273386594034
0.000140000000000029,0.0627208991451464,6.52879118205707
0.00123999999999924,0.0827509855991355,77.6821797396853
0.00146999999999942,0.0602677520311516,69.683298306419
0.00170999999999921,0.0548530354292804,70.8078081085506
0.00122999999999962,0.0715228539527484,63.2156202365847
0.00154000000000032,0.0720666901232274,71.7718310346994
0.00140999999999991,0.0642728148321616,69.8761695542021
0.000339999999999563,0.0644277336221943,17.6057254157422
0.000590000000000757,0.125256764923913,47.0678752868434
0.000329999999999941,0.0803887760003139,21.1056268408762
0.00107999999999997,0.0784129120863408,58.7236389056677
0.00101000000000084,0.101401146894482,69.4293944567584
0.000840000000000174,0.0899092175133909,51.4320255018794
0.000849999999999795,0.116988190648021,77.152575097215
0.000769999999999271,0.0950114227848093,55.5261300493565
0.000219999999998777,0.047646220161166,7.21378115537445
0.00155000000000172,0.0616680099225633,77.5674149929696
0.000939999999999941,0.0956557093504458,69.0062552556791
0.00121000000000038,0.0825954019708668,59.9887763788277
0.00127999999999773,0.0815254932828129,75.2383049501665
0.000969999999998805,0.0655160033242819,42.5808193403397
0.000739999999996854,0.078763126972353,36.5986659870125
0.000360000000000582,0.0519976849409005,14.4164077336497
0.00108000000000175,0.0953526913379417,69.865399251561
0.00144000000000233,0.0776185588645362,72.3309186415317
0.00145000000000195,0.0870490645996593,76.2974001901582
0.000230000000001951,0.0670143488267474,11.2660417908549
0.00194000000000116,0.0546612514424965,80.0692410778747
0.00064000000000064,0.0570937287518554,27.5435367635587
0.00130000000000052,0.0854056924294557,75.003617751509
0.000779999999998893,0.0777841951908833,43.6307522871573
0.000260000000004368,0.0533138197090963,10.7183162423157
0.00183999999999429,0.0570158606381721,79.0905653553806
0.000400000000006173,0.0719016589964792,20.1151440192413
0.000689999999998747,0.070419479561318,34.5847856573024
0.000480000000003145,0.0828181572441853,30.4513713222306
0.00153999999999854,0.0750302299441152,69.3290519079547
0.00177000000000049,0.0591594435835923,82.7078218973521
0.000550000000004047,0.0702397574738924,25.4741467219534
0.00128999999999735,0.0587133386855037,61.3929222113199
0.000490000000006319,0.0928858873067746,31.076575184798
0.000920000000000698,0.091690827134336,68.435009410259
0.00115999999999872,0.10029757018642,62.1351612923893
0.000929999999996767,0.0859600450055495,57.3906250918561
0.000720000000001164,0.0890105809039738,47.4103185944964
0.000650000000000261,0.0933364982642217,46.1884028079443
0.000790000000002067,0.093362107532716,56.6119259604556
0.000889999999998281,0.0866657092806342,52.9076984391019
0.000999999999997669,0.121632804983982,63.9359719607601
0.000729999999997233,0.0796468543457518,42.4718939282019
0.000769999999995719,0.0687477902074729,38.0762521568732
0.000220000000005882,0.0750498974418985,13.5722536398106
0.000339999999994234,0.0618935394899687,14.3754156209391
0.00138999999999356,0.0628276252073228,67.1609865084516
0.00164000000000186,0.0650141558515198,78.74965435613
0.000370000000003756,0.0658148364065418,15.9438949623402
0.000970000000002358,0.0925840732937875,74.5657671081135
0.00103000000000009,0.0840549610166477,62.4899210170192
0.000819999999997378,0.0889167095018522,62.95380700102
0.00158000000000413,0.0699648033361537,78.8166891648003
0.0010599999999954,0.0591517698404669,47.8909092264576
0.000439999999997553,0.103471015458846,24.8548271347997
0.00103000000000009,0.124482414960255,69.6389354174347
0.000799999999998136,0.0904260002920303,59.3376436457022
0.000710000000005095,0.0899786664868518,46.5626337238849
0.000800000000005241,0.067683910721291,36.9621947860805
0.0107500000000016,0.0727879588630245,613.567692254964
0.00168999999999642,0.0608945055767105,80.7192794221584
0.00046999999999997,0.0822393926028919,30.5841602576761
0.000309999999998922,0.0816637634227408,18.6569698759508
0.00121999999999645,0.0764060176126637,62.5368345817042
0.00182999999999822,0.0644734854092093,87.8968689116726
0.00189999999999912,0.0602160754522068,90.2531738042661
0.00081000000000131,0.0964275961510435,60.1069362436263
0.000839999999996621,0.0817904320342144,47.0973192914444
0.00046999999999997,0.103642965737432,27.68789711284
0.000180000000000291,0.0683473898502509,10.2945329165363
0.000630000000001019,0.0872090398821506,42.4786326923816
0.00149000000000399,0.0714321289417246,77.6788766259225
0.00184999999999746,0.0603253851431305,83.263399273112
0.000869999999991933,0.0854542749161293,57.9333106112303
0.00106999999999857,0.0925950993667897,69.8414705257085
0.00110999999999706,0.0878883130672232,61.4307895193937
0.000619999999997844,0.0656819846967096,28.6995410276398
0.000960000000006289,0.0707154004899344,42.5919575073027
0.000459999999989691,0.0853820372400307,28.0485154474782
0.000349999999997408,0.0792476473311439,20.5864292163001
0.000990000000001601,0.088089169586274,64.5855563806103
0.000820000000004484,0.0942824349670808,62.0620243714375
0.00186999999999671,0.059055586915763,88.5006191886388
0.000489999999999213,0.0849942188913477,34.1494152172329
0.00118000000000507,0.0869505241748669,68.142236974005
0.000619999999997844,0.0722784555203067,31.0017547371205
0.00038000000000693,0.0781135411998211,18.178111159442
0.000900000000001455,0.0801983388303995,47.0275494033242
0.000900000000001455,0.0611581714853049,42.5319099492904
0.00108000000000175,0.0727170698005128,54.3124303513522
0.000889999999998281,0.0850182382578755,47.1896309253472
0.00193000000000154,0.0616442566048487,90.9044454502281
0.000700000000009027,0.0625112801042125,33.4556927769926
0.000870000000006144,0.111973363699057,72.1880644626788
0.000910000000004629,0.0828316940848239,53.5820573777673
0.000939999999999941,0.0814171738957832,52.9791329843545
0.000929999999996767,0.0865730051421743,60.903484328342
0.000600000000005707,0.0848382845515214,38.9373718334462
0.000950000000003115,0.0903674433252029,73.010933894367
0.001269999999991,0.0861803205311222,74.5657798484057
0.000950000000003115,0.0734626459449093,49.3382859867738
0.000240000000005125,0.0773524944698885,14.89039214649
0.000360000000000582,0.14673526968086,40.520152813951
0.000889999999998281,0.0986353750459763,64.5498982412756
0.00173000000000911,0.0560307275375642,76.1482720949396
0.00139999999998963,0.0652731376880613,65.2597810535977
0.00137999999999749,0.0689635358549765,67.8824559593555
0.00118999999999403,0.0591936020587891,51.3889985478048
0.000560000000007221,0.07774911135796,26.2059094160318
0.00106999999999857,0.0793267122819685,64.7629756060344
0.000559999999993011,0.0810901157813699,35.9534543342674
0.00144999999999129,0.0559702313343244,62.6160558314709
0.00114999999999554,0.0528601067755421,40.1638861692223
0.000240000000005125,0.0711184594399921,12.2498561569428
0.000419999999991205,0.0767805845829397,24.3012822172216
0.00086000000000297,0.0864148684873953,48.1751374708935
0.000819999999990273,0.0543087912671343,33.3584286240614
0.000619999999997844,0.0853992052806483,35.6417527168026
0.00112000000000023,0.0814915599147152,58.5169459278027
0.00081000000000131,0.0803301155882572,56.1597038934614
0.000529999999997699,0.0924401559607251,33.5939906947648
0.00126000000000204,0.0709912640819379,62.011955496011
0.00140000000000384,0.0626508077262322,67.2203065462675
0.00141000000000702,0.0784392478991762,75.9581932766588
0.00108000000000175,0.0865994959143475,66.6293033988161
0.00187999999999988,0.0545669109269511,76.928127271916
0.000889999999998281,0.099767293016102,64.1443837307026
0.000190000000003465,0.0701990146386322,10.5730155332453
0.000639999999989982,0.0811208642696499,33.7607056951299
0.000740000000007512,0.0969653095771523,57.3597886692058
0.000529999999997699,0.0519701403636184,20.6566413276736
0.00101999999999691,0.0777280066598927,51.4684936705078
0.000470000000007076,0.0805681299073111,27.4424450485128
0.00110999999999706,0.0850944365474291,61.119052150519
0.00135000000000218,0.0820226850744685,71.7564021679697
0.00145999999999447,0.0565124450449073,62.8102709036153
0.00112000000000023,0.0842021249883871,62.3091880569455
0.0073200000000071,0.161332390988891,755.352230020412
0.00086000000000297,0.0823416492274092,45.4115731128759
0.00103000000000009,0.0822035281794626,61.0671865759619
0.00048000000001025,0.120012690628917,35.8868904722332
0.000910000000004629,0.0641610033737479,37.8656506756259
0.000599999999991496,0.0865372384754437,42.9074895943547
0.00100999999999374,0.0824883167560984,55.2509784107784
0.00086000000000297,0.0908100939582948,60.0006491784852
0.00105000000000643,0.0839462380561322,59.4140017650114
0.000820000000004484,0.087095028257,48.6342562372609
0.00100999999999374,0.0892862527672111,66.5934650685558
0.00108000000000175,0.0918292023808256,58.8446595401138
0.00105000000000643,0.0805016252476705,63.3356423419078
0.000579999999999359,0.0938084553169798,39.8764276230509
